0.462871287129
0.469059405941
0.469059405941
0.469059405941
0.465346534653
0.469059405941
0.470297029703
0.465346534653
0.467821782178
0.464108910891
0.0
0.0
0.0
0.00247524752475
0.0
0.0
0.0
0.0
0.0
0.0
